/usr/share/spotify/spotify-client/spotify: /usr/lib/libcrypto.so.1.0.0: no version information available (required by /usr/share/spotify/spotify-client/spotify)
/usr/share/spotify/spotify-client/spotify: /usr/lib/libssl.so.1.0.0: no version information available (required by /usr/share/spotify/spotify-client/spotify)
16:22:46.953 I [breakpad.cpp:110                ] Registered Breakpad for product: spotify

16:22:46.955 I [translate.cpp:152               ] Reloading language file
16:22:46.968 I [translate.cpp:152               ] Reloading language file
16:22:46.969 I [breakpad.cpp:269                ] Searching for crashdumps: /home/pawel/.cache/spotify/*.dmp

16:22:47.243 E [offline_key_store.cpp:77        ] Offline: failed to load key stores, error 7007, path /home/pawel/.cache/spotify/Users/pawelkl-user/offline2
16:22:47.247 E [offline_key_store.cpp:77        ] Offline: failed to load key stores, error 7007, path /home/pawel/.cache/spotify/Users/pawelkl-user/cached
16:22:47.249 D [spirc_manager.cpp:230           ] GAIA: SpircManager::SpircManager, ident_=4a0e6ca5ba9abdd41743becf7ad9071241074309
16:22:47.254 I [MainView.cpp:1097               ] Registering bundled framework bridge-desktop with version 0.30.0
16:22:47.254 I [MainView.cpp:1097               ] Registering bundled framework import with version 0.1.0
16:22:47.254 I [MainView.cpp:1097               ] Registering bundled framework shared with version 0.2.3
16:22:47.254 I [MainView.cpp:1094               ] Registering bundled app share with version 3.3.4
16:22:47.254 I [MainView.cpp:1097               ] Registering bundled framework views with version 1.54.8
16:22:47.254 I [MainView.cpp:1094               ] Registering bundled app collection with version 2.18.0
16:22:47.254 I [MainView.cpp:1097               ] Registering bundled framework resources with version 0.6.1
16:22:47.254 I [MainView.cpp:1094               ] Registering bundled app genre with version 7.0.43
16:22:47.254 I [MainView.cpp:1094               ] Registering bundled app artist with version 2.3.6
16:22:47.254 I [MainView.cpp:1094               ] Registering bundled app article with version 7.0.43
16:22:47.254 I [MainView.cpp:1097               ] Registering bundled framework logging-utils with version 0.0.11
16:22:47.254 I [MainView.cpp:1094               ] Registering bundled app finder with version 1.4.2
16:22:47.254 I [MainView.cpp:1097               ] Registering bundled framework artist-shared with version 0.5.3
16:22:47.254 I [MainView.cpp:1094               ] Registering bundled app collection-album with version 1.7.0
16:22:47.254 I [MainView.cpp:1094               ] Registering bundled app install with version 1.1.0
16:22:47.254 I [MainView.cpp:1097               ] Registering bundled framework unstable with version 0.13.2
16:22:47.254 I [MainView.cpp:1094               ] Registering bundled app bundles with version 1.3.0
16:22:47.254 I [MainView.cpp:1094               ] Registering bundled app search with version 8.2.0
16:22:47.254 I [MainView.cpp:1094               ] Registering bundled app charts with version 1.0.0
16:22:47.254 I [MainView.cpp:1094               ] Registering bundled app messages with version 1.7.1
16:22:47.254 I [MainView.cpp:1097               ] Registering bundled framework social-artist-shared with version 0.1.5
16:22:47.254 I [MainView.cpp:1097               ] Registering bundled framework util with version 0.2.4
16:22:47.254 I [MainView.cpp:1097               ] Registering bundled framework revgen-shared with version 0.0.14
16:22:47.254 I [MainView.cpp:1094               ] Registering bundled app profile with version 2.4.18
16:22:47.254 I [MainView.cpp:1094               ] Registering bundled app html with version 0.1.0
16:22:47.254 I [MainView.cpp:1097               ] Registering bundled framework recommendations-shared with version 0.7.13
16:22:47.254 I [MainView.cpp:1097               ] Registering bundled framework recommendations-shared with version 1.0.0
16:22:47.254 I [MainView.cpp:1094               ] Registering bundled app feed with version 2.0.17
16:22:47.254 I [MainView.cpp:1094               ] Registering bundled app browse with version 7.0.49
16:22:47.254 I [MainView.cpp:1094               ] Registering bundled app chart with version 1.0.0
16:22:47.254 I [MainView.cpp:1094               ] Registering bundled app notification-center with version 2.6.2
16:22:47.254 I [MainView.cpp:1094               ] Registering bundled app discover with version 2.1.15
16:22:47.254 I [MainView.cpp:1094               ] Registering bundled app error with version 1.1.0
16:22:47.254 I [MainView.cpp:1094               ] Registering bundled app follow with version 2.4.10
16:22:47.254 I [MainView.cpp:1094               ] Registering bundled app radio with version 4.1.7
16:22:47.254 I [MainView.cpp:1097               ] Registering bundled framework test-utils with version 0.2.0
16:22:47.254 I [MainView.cpp:1097               ] Registering bundled framework api with version 1.38.0
16:22:47.254 I [MainView.cpp:1097               ] Registering bundled framework api with version 0.3.1
16:22:47.254 I [MainView.cpp:1094               ] Registering bundled app test-runner with version 0.2.1
16:22:47.254 I [MainView.cpp:1094               ] Registering bundled app onboarding-popup with version 1.0.36
16:22:47.254 I [MainView.cpp:1094               ] Registering bundled app collection-artist with version 1.11.0
16:22:47.254 I [MainView.cpp:1094               ] Registering bundled app playlist-header with version 2.8.0
16:22:47.254 I [MainView.cpp:1094               ] Registering bundled app album with version 2.5.5
16:22:47.255 I [MainView.cpp:1094               ] Registering bundled app suggest with version 7.2.0
16:22:47.404 3 [playlist_be_pl4_context.cpp:405 ] [spotify:user:pawelkl:rootlist] Synchronization starting: DIFF (from revision 3,350105598e2ec24828f75da9f59e578564c2a8a0) 
16:22:47.415 3 [playlist_be_pl4_context.cpp:405 ] [spotify:user:spotify:playlist:4dJHrPYVdKgaCE3Lxrv1MZ] Synchronization starting: DIFF (from revision 226,0cd65f2d38e68cf4fc18031b2e67dfc0a5b20dd8) 
16:22:47.422 I [AppManager.cpp:258              ] Creating instance of the application browse.
16:22:47.426 I [AppManager.cpp:258              ] Creating instance of the application suggest.
16:22:47.430 I [AppManager.cpp:258              ] Creating instance of the application notification-center.
16:22:47.431 I [AppManager.cpp:541              ] Removing instance of application notification-center.

16:22:47.431 I [AppManager.cpp:258              ] Creating instance of the application notification-center.
16:22:47.447 I [offline_manager.cpp:2353        ] Storage has been cleaned
16:22:47.447 3 [playlist_be_pl4_context.cpp:405 ] [spotify:user:pawelkl:collectionrootlist] Synchronization starting: DIFF (from revision 1,722bf14269c783a4dddf7913f2b8fd7429fd6008) 
16:22:47.532 3 [playlist_be_pl4_context.cpp:405 ] [spotify:user:pawelkl:publishedrootlist] Synchronization starting: DIFF (from revision 3,350105598e2ec24828f75da9f59e578564c2a8a0) 
16:22:47.677 I [AppManager.cpp:258              ] Creating instance of the application feed.
16:22:47.679 3 [playlist_be_toplist.cpp:233     ] [spotify:user:pawelkl:top:tracks] Synchronization starting
16:22:47.689 I [ap_connection_impl.cpp:901      ] Connecting to AP sto3-accesspoint-a53.ap.spotify.com:4070
16:22:47.872 3 [playlist_be_pl4_context.cpp:405 ] [spotify:user:pawelkl:inbox] Synchronization starting: DIFF (from revision 0,726f6f7400000000000000000000000000000000) 
16:22:47.894 I [MainView.cpp:6828               ] Load complete (0) url: sp://0084e9e0bb09933f175b1cbb85e0ec74ee3cb5a4.feed/index.html
16:22:48.117 I [MainView.cpp:6828               ] Load complete (0) url: sp://00ec7fbafcb181738e3df3fb66a94a533c98d2fa.browse/index.html
16:22:48.120 I [ap_connection_impl.cpp:530      ] Connected to AP: 194.132.162.20:4070
16:22:48.540 I [sliding_window_prefetch_strategy.cpp:329] Prefetch: looks like new context - resetting window size to 1
16:22:48.640 3 [playlist_be_pl4_context.cpp:904 ] [spotify:user:pawelkl:rootlist] Delta-updated to revision 3,350105598e2ec24828f75da9f59e578564c2a8a0 (no new changes)
16:22:48.661 3 [playlist_be_pl4_context.cpp:405 ] [spotify:user:pawelkl:collectiontracklist:6YYF4txmcc0idBWwcKFGHW] Synchronization starting: DIFF (from revision 1,f1f7cfa08d07b867da2d9d51c27ec90c92c456ae) 
16:22:48.715 3 [playlist_be_toplist.cpp:136     ] [spotify:user:pawelkl:top:tracks] Updated
16:22:48.722 3 [playlist_be_pl4_context.cpp:904 ] [spotify:user:pawelkl:collectionrootlist] Delta-updated to revision 1,722bf14269c783a4dddf7913f2b8fd7429fd6008 (no new changes)
16:22:48.764 3 [playlist_be_pl4_context.cpp:904 ] [spotify:user:spotify:playlist:4dJHrPYVdKgaCE3Lxrv1MZ] Delta-updated to revision 226,0cd65f2d38e68cf4fc18031b2e67dfc0a5b20dd8 (no new changes)
16:22:48.765 3 [playlist_be_pl4_context.cpp:607 ] [spotify:user:pawelkl:publishedrootlist]  synchronization error: Hermes error code 405 (unknown)
16:22:48.765 3 [playlist_be_pl4_context.cpp:716 ] [spotify:user:pawelkl:publishedrootlist]   - requesting HEAD from remote.
16:22:48.765 3 [playlist_be_pl4_context.cpp:904 ] [spotify:user:pawelkl:inbox] Delta-updated to revision 0,726f6f7400000000000000000000000000000000
16:22:48.788 3 [playlist_be_pl4_context.cpp:405 ] [spotify:user:spotify:playlist:4dJHrPYVdKgaCE3Lxrv1MZ] Synchronization starting: DIFF (from revision 226,0cd65f2d38e68cf4fc18031b2e67dfc0a5b20dd8) 
16:22:48.788 3 [playlist_be_pl4_context.cpp:405 ] [spotify:user:pawelkl:publishedrootlist] Synchronization starting: GET (full reset) (cannot send dump) (from revision 3,350105598e2ec24828f75da9f59e578564c2a8a0) 
16:22:48.864 3 [playlist_be_pl4_context.cpp:904 ] [spotify:user:pawelkl:collectiontracklist:6YYF4txmcc0idBWwcKFGHW] Delta-updated to revision 1,f1f7cfa08d07b867da2d9d51c27ec90c92c456ae (no new changes)
16:22:49.005 3 [playlist_be_pl4_context.cpp:904 ] [spotify:user:spotify:playlist:4dJHrPYVdKgaCE3Lxrv1MZ] Delta-updated to revision 226,0cd65f2d38e68cf4fc18031b2e67dfc0a5b20dd8 (no new changes)
16:22:49.005 3 [playlist_be_pl4_context.cpp:1002] [spotify:user:pawelkl:publishedrootlist] Snapshot-updated to revision 3,350105598e2ec24828f75da9f59e578564c2a8a0
16:22:49.302 I [MainView.cpp:6828               ] Load complete (0) url: sp://00ec7fbafcb181738e3df3fb66a94a533c98d2fa.browse/index.html
16:22:49.535 3 [playlist_be_pl4_context.cpp:405 ] [spotify:user:spotify:playlist:59ZbFPES4DQwEjBpWHzrtC] Synchronization starting: GET (from revision 0,726f6f7400000000000000000000000000000000) 
16:22:49.688 3 [playlist_be_pl4_context.cpp:1002] [spotify:user:spotify:playlist:59ZbFPES4DQwEjBpWHzrtC] Snapshot-updated to revision 333,fb6deda0c13cc0cf5013cbc0c7989f01ffb1ca0d
16:22:49.736 3 [playlist_be_pl4_context.cpp:405 ] [spotify:user:spotify_canada:playlist:6f87ov6xo1eguvYYkU2wOB] Synchronization starting: GET (from revision 0,726f6f7400000000000000000000000000000000) 
16:22:49.830 3 [playlist_be_pl4_context.cpp:405 ] [spotify:user:spotify:playlist:3SXtTLpEuiEgovsSM6o4bF] Synchronization starting: GET (from revision 0,726f6f7400000000000000000000000000000000) 
16:22:49.830 3 [playlist_be_pl4_context.cpp:405 ] [spotify:user:spotify:playlist:75dwLdmL07hDEDWqX17QeE] Synchronization starting: GET (from revision 0,726f6f7400000000000000000000000000000000) 
16:22:49.830 3 [playlist_be_pl4_context.cpp:405 ] [spotify:user:spotify:playlist:445ES7sgFV8zJHebmbUW0L] Synchronization starting: GET (from revision 0,726f6f7400000000000000000000000000000000) 
16:22:49.831 3 [playlist_be_pl4_context.cpp:405 ] [spotify:user:spotify:playlist:679dZxoZT7TketHECEkHUn] Synchronization starting: GET (from revision 0,726f6f7400000000000000000000000000000000) 
16:22:49.894 3 [playlist_be_pl4_context.cpp:1002] [spotify:user:spotify_canada:playlist:6f87ov6xo1eguvYYkU2wOB] Snapshot-updated to revision 537,e5c94b0f4e0b60559b371d1c29126a4dbbd5fa62
16:22:49.895 3 [playlist_be_pl4_context.cpp:405 ] [spotify:user:spotify_canada:playlist:6f87ov6xo1eguvYYkU2wOB] Synchronization starting: DIFF (from revision 537,e5c94b0f4e0b60559b371d1c29126a4dbbd5fa62) 
16:22:49.998 3 [playlist_be_pl4_context.cpp:1002] [spotify:user:spotify:playlist:75dwLdmL07hDEDWqX17QeE] Snapshot-updated to revision 1555,0f140b8ccd8b2089fef7ebb11f47fc4fec6f0a82
16:22:50.007 3 [playlist_be_pl4_context.cpp:1002] [spotify:user:spotify:playlist:3SXtTLpEuiEgovsSM6o4bF] Snapshot-updated to revision 38,6390a1dd8bb1f99d37c0a09cba9c72c244e7a465
16:22:50.013 3 [playlist_be_pl4_context.cpp:1002] [spotify:user:spotify:playlist:679dZxoZT7TketHECEkHUn] Snapshot-updated to revision 139,8a85e7771d9a8fda60eff7415aa6e5a47a74db14
16:22:50.019 3 [playlist_be_pl4_context.cpp:405 ] [spotify:user:spotify:playlist:5O2ERf8kAYARVVdfCKZ9G7] Synchronization starting: GET (from revision 0,726f6f7400000000000000000000000000000000) 
16:22:50.027 3 [playlist_be_pl4_context.cpp:405 ] [spotify:user:spotify:playlist:1SvdCw4FMhqxo7dj8uYNxb] Synchronization starting: GET (from revision 0,726f6f7400000000000000000000000000000000) 
16:22:50.033 3 [playlist_be_pl4_context.cpp:405 ] [spotify:user:spotify:playlist:5FJXhjdILmRA2z5bvz4nzf] Synchronization starting: GET (from revision 0,726f6f7400000000000000000000000000000000) 
16:22:50.035 3 [playlist_be_pl4_context.cpp:1002] [spotify:user:spotify:playlist:445ES7sgFV8zJHebmbUW0L] Snapshot-updated to revision 222,8a6b4d4b8fbf169416a63887810ab9a41db26a9b
16:22:50.071 3 [playlist_be_pl4_context.cpp:405 ] [spotify:user:spotify:playlist:5zRlalcDw1qdHLc3lqfmHp] Synchronization starting: GET (from revision 0,726f6f7400000000000000000000000000000000) 
16:22:50.129 3 [playlist_be_pl4_context.cpp:904 ] [spotify:user:spotify_canada:playlist:6f87ov6xo1eguvYYkU2wOB] Delta-updated to revision 537,e5c94b0f4e0b60559b371d1c29126a4dbbd5fa62 (no new changes)
16:22:50.140 3 [playlist_be_pl4_context.cpp:1002] [spotify:user:spotify:playlist:5O2ERf8kAYARVVdfCKZ9G7] Snapshot-updated to revision 158,029904dfcd412527d89f214cc5df55c28c6bc488
16:22:50.192 3 [playlist_be_pl4_context.cpp:405 ] [spotify:user:spotify:playlist:6G2GPOJNY3ZmXHdbL2jAee] Synchronization starting: GET (from revision 0,726f6f7400000000000000000000000000000000) 
16:22:50.192 3 [playlist_be_pl4_context.cpp:405 ] [spotify:user:spotify:playlist:1WDw5izv4UhpobNdGXQug7] Synchronization starting: DIFF (from revision 25,b0dacc8ef37bca138f34386d2c5e15fa766ee753) 
16:22:50.196 3 [playlist_be_pl4_context.cpp:1002] [spotify:user:spotify:playlist:1SvdCw4FMhqxo7dj8uYNxb] Snapshot-updated to revision 463,1166a458d8e9eaea2d5b3b9aedaf9762a2f0928e
16:22:50.207 3 [playlist_be_pl4_context.cpp:1002] [spotify:user:spotify:playlist:5FJXhjdILmRA2z5bvz4nzf] Snapshot-updated to revision 1736,773c1683aed0be071274739b65f986cfa8dc3b5c
16:22:50.246 3 [playlist_be_pl4_context.cpp:1002] [spotify:user:spotify:playlist:5zRlalcDw1qdHLc3lqfmHp] Snapshot-updated to revision 139,18ddd004d629fcbf40aba39eb1f03d0deffbaab4
16:22:50.348 3 [playlist_be_pl4_context.cpp:904 ] [spotify:user:spotify:playlist:1WDw5izv4UhpobNdGXQug7] Delta-updated to revision 25,b0dacc8ef37bca138f34386d2c5e15fa766ee753 (no new changes)
16:22:50.399 3 [playlist_be_pl4_context.cpp:1002] [spotify:user:spotify:playlist:6G2GPOJNY3ZmXHdbL2jAee] Snapshot-updated to revision 28,0d43e4a7978f2d36ba1a64085ea455667fb7194f
16:22:51.936 3 [playlist_be_pl4_context.cpp:405 ] [spotify:user:spotify:playlist:2IQG07dXXIDGGsLGoismIp] Synchronization starting: GET (from revision 0,726f6f7400000000000000000000000000000000) 
16:22:52.038 3 [playlist_be_pl4_context.cpp:1002] [spotify:user:spotify:playlist:2IQG07dXXIDGGsLGoismIp] Snapshot-updated to revision 549,0c5dc04b56bd87631c25a3dfe0fcc0ac644bd79b
16:23:16.397 I [ApplicationPage.cpp:185         ] Keeping application browse alive for 60000 ms.
16:23:16.405 I [sliding_window_prefetch_strategy.cpp:333] Prefetch: looks like a skip or partial context change - halving window size to 1
16:23:16.405 I [sliding_window_prefetch_strategy.cpp:329] Prefetch: looks like new context - resetting window size to 1
16:23:16.406 I [AppManager.cpp:541              ] Removing instance of application suggest.

16:23:16.408 I [AppManager.cpp:541              ] Removing instance of application notification-center.

16:23:16.410 I [AppManager.cpp:541              ] Removing instance of application feed.

16:23:16.411 I [ApplicationPage.cpp:66          ] Unloading application browse.
16:23:16.411 I [AppManager.cpp:541              ] Removing instance of application browse.

16:23:16.428 I [AppManager.cpp:541              ] Removing instance of application playlist-header.

16:23:16.428 I [AppManager.cpp:541              ] Removing instance of application search.

16:23:16.428 I [AppManager.cpp:541              ] Removing instance of application radio.

